{
  "project_info": {
    "project_number": "1092123193873",
    "firebase_url": "https://fir-gig.firebaseio.com",
    "project_id": "fir-gig",
    "storage_bucket": "fir-gig.appspot.com"
  },
  "client": [
    {
      "client_info": {
        "mobilesdk_app_id": "1:1092123193873:android:a604acffbd451129",
        "android_client_info": {
          "package_name": "com.example.trader.interactivework"
        }
      },
      "oauth_client": [
        {
          "client_id": "1092123193873-8p254rcejufecdp14hnaml6o7rhsrk84.apps.googleusercontent.com",
          "client_type": 3
        }
      ],
      "api_key": [
        {
          "current_key": "AIzaSyDOExmRf-bZCnz8KzDibaUfozFBp1b9514"
        }
      ],
      "services": {
        "appinvite_service": {
          "other_platform_oauth_client": [
            {
              "client_id": "1092123193873-8p254rcejufecdp14hnaml6o7rhsrk84.apps.googleusercontent.com",
              "client_type": 3
            }
          ]
        }
      }
    }
  ],
  "configuration_version": "1"
}